EESchema Schematic File Version 4
EELAYER 30 0
EELAYER END
$Descr A4 11693 8268
encoding utf-8
Sheet 1 9
Title ""
Date ""
Rev ""
Comp ""
Comment1 ""
Comment2 ""
Comment3 ""
Comment4 ""
$EndDescr
$Comp
L MCU_ST_STM32F0:STM32F042K6Tx U1
U 1 1 5EB81346
P 4500 2900
F 0 "U1" H 4650 1950 50  0000 C CNN
F 1 "STM32F042K6Tx" H 4900 1850 50  0000 C CNN
F 2 "Package_QFP:LQFP-32_7x7mm_P0.8mm" H 4100 2000 50  0001 R CNN
F 3 "http://www.st.com/st-web-ui/static/active/en/resource/technical/document/datasheet/DM00105814.pdf" H 4500 2900 50  0001 C CNN
F 4 "511-STM32F042K6T6TR " H 4500 2900 50  0001 C CNN "Mouser Ref"
	1    4500 2900
	1    0    0    -1  
$EndComp
Wire Wire Line
	4400 2000 4400 1900
Wire Wire Line
	4600 1900 4600 2000
Wire Wire Line
	4400 3900 4400 3950
Wire Wire Line
	4400 3950 4500 3950
Wire Wire Line
	4500 3950 4500 3900
$Comp
L power:GND #PWR04
U 1 1 5EB8283F
P 4500 4050
F 0 "#PWR04" H 4500 3800 50  0001 C CNN
F 1 "GND" H 4505 3877 50  0000 C CNN
F 2 "" H 4500 4050 50  0001 C CNN
F 3 "" H 4500 4050 50  0001 C CNN
	1    4500 4050
	1    0    0    -1  
$EndComp
Wire Wire Line
	4500 4050 4500 3950
Connection ~ 4500 3950
Text Label 3500 3700 0    50   ~ 0
BOOT0
Wire Wire Line
	5000 2400 5500 2400
Wire Wire Line
	5000 2500 5500 2500
Text Label 5500 2400 2    50   ~ 0
FAN_3_PWM
Text Label 5500 2500 2    50   ~ 0
FAN_4_PWM
Wire Wire Line
	4000 3400 3500 3400
Text Label 3500 3400 0    50   ~ 0
FAN_2_TACH
Text Label 3500 3100 0    50   ~ 0
FAN_4_TACH
Wire Wire Line
	4000 3100 3500 3100
Wire Wire Line
	4000 3000 3500 3000
Text Label 3500 3000 0    50   ~ 0
FAN_3_TACH
Text Label 3500 2200 0    50   ~ 0
NRST
Text Label 5500 3300 2    50   ~ 0
USB_DM
Wire Wire Line
	5000 3300 5500 3300
Wire Wire Line
	5000 3400 5500 3400
Text Label 5500 3400 2    50   ~ 0
USB_DP
Text Label 3500 3600 0    50   ~ 0
I2C_SDA
Wire Wire Line
	4000 3600 3500 3600
Wire Wire Line
	4000 3500 3500 3500
Text Label 3500 3500 0    50   ~ 0
I2C_SCL
Wire Wire Line
	3500 3700 4000 3700
Wire Wire Line
	3500 2200 4000 2200
$Sheet
S 9750 2400 550  650 
U 5EB93B3B
F0 "Sheet5EB93B3A" 50
F1 "FanIf.sch" 50
F2 "12V" I L 9750 2500 50 
F3 "GND" I L 9750 2950 50 
F4 "TACH" I L 9750 2800 50 
F5 "PWM" I L 9750 2650 50 
$EndSheet
$Sheet
S 9750 3300 550  650 
U 5EBB4948
F0 "sheet5EBB4948" 50
F1 "FanIf.sch" 50
F2 "12V" I L 9750 3400 50 
F3 "GND" I L 9750 3850 50 
F4 "TACH" I L 9750 3700 50 
F5 "PWM" I L 9750 3550 50 
$EndSheet
$Sheet
S 9750 4200 550  650 
U 5EBB5555
F0 "sheet5EBB5555" 50
F1 "FanIf.sch" 50
F2 "12V" I L 9750 4300 50 
F3 "GND" I L 9750 4750 50 
F4 "TACH" I L 9750 4600 50 
F5 "PWM" I L 9750 4450 50 
$EndSheet
$Sheet
S 9750 5100 550  650 
U 5EBB555B
F0 "sheet5EBB555B" 50
F1 "FanIf.sch" 50
F2 "12V" I L 9750 5200 50 
F3 "GND" I L 9750 5650 50 
F4 "TACH" I L 9750 5500 50 
F5 "PWM" I L 9750 5350 50 
$EndSheet
Wire Wire Line
	9750 2500 9600 2500
Wire Wire Line
	9600 2500 9600 3400
Wire Wire Line
	9600 5200 9750 5200
Wire Wire Line
	9750 5650 9450 5650
Wire Wire Line
	9450 5650 9450 4750
Wire Wire Line
	9450 2950 9750 2950
$Comp
L power:GND #PWR08
U 1 1 5EBB7866
P 9450 5750
F 0 "#PWR08" H 9450 5500 50  0001 C CNN
F 1 "GND" H 9455 5577 50  0000 C CNN
F 2 "" H 9450 5750 50  0001 C CNN
F 3 "" H 9450 5750 50  0001 C CNN
	1    9450 5750
	1    0    0    -1  
$EndComp
Wire Wire Line
	9450 5750 9450 5650
Connection ~ 9450 5650
$Comp
L power:+12V #PWR09
U 1 1 5EBB8171
P 9600 2350
F 0 "#PWR09" H 9600 2200 50  0001 C CNN
F 1 "+12V" H 9615 2523 50  0000 C CNN
F 2 "" H 9600 2350 50  0001 C CNN
F 3 "" H 9600 2350 50  0001 C CNN
	1    9600 2350
	1    0    0    -1  
$EndComp
Wire Wire Line
	9600 2350 9600 2500
Connection ~ 9600 2500
Text Label 8850 5350 0    50   ~ 0
FAN_1_PWM
Text Label 8850 4450 0    50   ~ 0
FAN_2_PWM
Text Label 8850 3550 0    50   ~ 0
FAN_3_PWM
Text Label 8850 2650 0    50   ~ 0
FAN_4_PWM
Wire Wire Line
	8850 5350 9750 5350
Wire Wire Line
	8850 4450 9750 4450
Wire Wire Line
	8850 3550 9750 3550
Wire Wire Line
	8850 2650 9750 2650
Text Label 8850 5500 0    50   ~ 0
FAN_1_TACH
Wire Wire Line
	8850 5500 9750 5500
Text Label 8850 4600 0    50   ~ 0
FAN_2_TACH
Wire Wire Line
	8850 4600 9750 4600
Text Label 8850 3700 0    50   ~ 0
FAN_3_TACH
Wire Wire Line
	8850 3700 9750 3700
Text Label 8850 2800 0    50   ~ 0
FAN_4_TACH
Wire Wire Line
	8850 2800 9750 2800
$Comp
L Connector_Generic:Conn_01x06 J2
U 1 1 5EBDE9BA
P 1150 1450
F 0 "J2" H 1072 1767 50  0000 C CNN
F 1 "MICRO_USB_CONN" H 1100 1750 50  0000 C CNN
F 2 "Connector_USB:USB_Micro-B_Molex-105017-0001" H 1150 1450 50  0001 C CNN
F 3 "~" H 1150 1450 50  0001 C CNN
F 4 "538-105017-1001 " H 1150 1450 50  0001 C CNN "Mouser Ref"
	1    1150 1450
	-1   0    0    -1  
$EndComp
NoConn ~ 1350 1250
Text Label 1850 1350 2    50   ~ 0
USB_DM
Wire Wire Line
	1350 1350 1850 1350
Wire Wire Line
	1350 1450 1850 1450
Text Label 1850 1450 2    50   ~ 0
USB_DP
$Comp
L power:GND #PWR02
U 1 1 5EBE5146
P 1550 1650
F 0 "#PWR02" H 1550 1400 50  0001 C CNN
F 1 "GND" V 1555 1522 50  0000 R CNN
F 2 "" H 1550 1650 50  0001 C CNN
F 3 "" H 1550 1650 50  0001 C CNN
	1    1550 1650
	0    -1   -1   0   
$EndComp
Text Label 1850 3100 2    50   ~ 0
I2C_SDA
Text Label 1850 3000 2    50   ~ 0
I2C_SCL
$Comp
L power:GND #PWR01
U 1 1 5EBFB052
P 1550 3200
F 0 "#PWR01" H 1550 2950 50  0001 C CNN
F 1 "GND" V 1555 3072 50  0000 R CNN
F 2 "" H 1550 3200 50  0001 C CNN
F 3 "" H 1550 3200 50  0001 C CNN
	1    1550 3200
	0    -1   -1   0   
$EndComp
$Comp
L power:+3V3 #PWR03
U 1 1 5EBFDFD6
P 3750 1300
F 0 "#PWR03" H 3750 1150 50  0001 C CNN
F 1 "+3V3" H 3765 1473 50  0000 C CNN
F 2 "" H 3750 1300 50  0001 C CNN
F 3 "" H 3750 1300 50  0001 C CNN
	1    3750 1300
	1    0    0    -1  
$EndComp
$Comp
L Connector:Screw_Terminal_01x01 S1
U 1 1 5EB8932D
P 9800 900
F 0 "S1" H 9880 942 50  0000 L CNN
F 1 "Screw_Terminal_01x01" H 9880 851 50  0000 L CNN
F 2 "keystone-pcb-screw-terminals:KEYSTONE-7690" H 9800 900 50  0001 C CNN
F 3 "~" H 9800 900 50  0001 C CNN
F 4 "534-7690" H 9800 900 50  0001 C CNN "Mouser Ref"
	1    9800 900 
	1    0    0    -1  
$EndComp
Wire Wire Line
	9600 900  9500 900 
Wire Wire Line
	9500 900  9500 1050
Wire Wire Line
	9500 1350 9600 1350
Wire Wire Line
	9600 1200 9500 1200
Connection ~ 9500 1200
Wire Wire Line
	9500 1200 9500 1350
Wire Wire Line
	9500 1050 9600 1050
Connection ~ 9500 1050
Wire Wire Line
	9500 1050 9500 1200
$Comp
L power:GND #PWR05
U 1 1 5EB8DC6B
P 9400 1200
F 0 "#PWR05" H 9400 950 50  0001 C CNN
F 1 "GND" V 9405 1072 50  0000 R CNN
F 2 "" H 9400 1200 50  0001 C CNN
F 3 "" H 9400 1200 50  0001 C CNN
	1    9400 1200
	0    1    1    0   
$EndComp
Wire Wire Line
	9400 1200 9500 1200
$Comp
L Connector:Screw_Terminal_01x01 S2
U 1 1 5EB9128D
P 9800 1050
F 0 "S2" H 9880 1092 50  0000 L CNN
F 1 "Screw_Terminal_01x01" H 9880 1001 50  0000 L CNN
F 2 "keystone-pcb-screw-terminals:KEYSTONE-7690" H 9800 1050 50  0001 C CNN
F 3 "~" H 9800 1050 50  0001 C CNN
F 4 "534-7690" H 9800 1050 50  0001 C CNN "Mouser Ref"
	1    9800 1050
	1    0    0    -1  
$EndComp
$Comp
L Connector:Screw_Terminal_01x01 S3
U 1 1 5EB9142F
P 9800 1200
F 0 "S3" H 9880 1242 50  0000 L CNN
F 1 "Screw_Terminal_01x01" H 9880 1151 50  0000 L CNN
F 2 "keystone-pcb-screw-terminals:KEYSTONE-7690" H 9800 1200 50  0001 C CNN
F 3 "~" H 9800 1200 50  0001 C CNN
F 4 "534-7690" H 9800 1200 50  0001 C CNN "Mouser Ref"
	1    9800 1200
	1    0    0    -1  
$EndComp
$Comp
L Connector:Screw_Terminal_01x01 S4
U 1 1 5EB915AA
P 9800 1350
F 0 "S4" H 9880 1392 50  0000 L CNN
F 1 "Screw_Terminal_01x01" H 9880 1301 50  0000 L CNN
F 2 "keystone-pcb-screw-terminals:KEYSTONE-7690" H 9800 1350 50  0001 C CNN
F 3 "~" H 9800 1350 50  0001 C CNN
F 4 "534-7690" H 9800 1350 50  0001 C CNN "Mouser Ref"
	1    9800 1350
	1    0    0    -1  
$EndComp
Text Label 5500 2600 2    50   ~ 0
USER_IN_1
Wire Wire Line
	5000 2600 5500 2600
Wire Notes Line
	8700 1900 8700 6100
Wire Notes Line
	8700 6100 10850 6100
Wire Notes Line
	10850 6100 10850 1900
Wire Notes Line
	10850 1900 8700 1900
Text Notes 8750 6050 0    50   ~ 0
Fans
Wire Notes Line
	9100 650  10850 650 
Wire Notes Line
	10850 650  10850 1700
Wire Notes Line
	10850 1700 9100 1700
Wire Notes Line
	9100 1700 9100 650 
Text Notes 9150 1650 0    50   ~ 0
3.5" HDD Mounting Points
$Sheet
S 7550 2900 550  500 
U 5EBC48CA
F0 "Sheet5EBC48C9" 50
F1 "UserIn.sch" 50
F2 "SIG" I L 7550 3150 50 
F3 "VCC" I L 7550 3000 50 
F4 "GND" I L 7550 3300 50 
$EndSheet
$Sheet
S 7550 3650 550  500 
U 5EBCB1B0
F0 "sheet5EBCB1B0" 50
F1 "UserIn.sch" 50
F2 "SIG" I L 7550 3900 50 
F3 "VCC" I L 7550 3750 50 
F4 "GND" I L 7550 4050 50 
$EndSheet
$Sheet
S 7550 4400 550  500 
U 5EBD0BB0
F0 "sheet5EBD0BB0" 50
F1 "UserIn.sch" 50
F2 "SIG" I L 7550 4650 50 
F3 "VCC" I L 7550 4500 50 
F4 "GND" I L 7550 4800 50 
$EndSheet
$Sheet
S 7550 5150 550  500 
U 5EBD0BB5
F0 "sheet5EBD0BB5" 50
F1 "UserIn.sch" 50
F2 "SIG" I L 7550 5400 50 
F3 "VCC" I L 7550 5250 50 
F4 "GND" I L 7550 5550 50 
$EndSheet
Wire Wire Line
	7550 3000 7400 3000
Wire Wire Line
	7400 3000 7400 3750
Wire Wire Line
	7400 5250 7550 5250
Wire Wire Line
	7400 4500 7550 4500
Connection ~ 7400 4500
Wire Wire Line
	7400 4500 7400 5250
Wire Wire Line
	7550 3750 7400 3750
Connection ~ 7400 3750
Wire Wire Line
	7400 3750 7400 4500
Wire Wire Line
	7400 2950 7400 3000
Connection ~ 7400 3000
$Comp
L power:GND #PWR06
U 1 1 5EBDD5B7
P 7250 5700
F 0 "#PWR06" H 7250 5450 50  0001 C CNN
F 1 "GND" H 7255 5527 50  0000 C CNN
F 2 "" H 7250 5700 50  0001 C CNN
F 3 "" H 7250 5700 50  0001 C CNN
	1    7250 5700
	1    0    0    -1  
$EndComp
Wire Wire Line
	7250 5700 7250 5550
Wire Wire Line
	7250 5550 7550 5550
Wire Wire Line
	7250 5550 7250 4800
Wire Wire Line
	7250 4800 7550 4800
Connection ~ 7250 5550
Wire Wire Line
	7250 4800 7250 4050
Wire Wire Line
	7250 4050 7550 4050
Connection ~ 7250 4800
Wire Wire Line
	7250 4050 7250 3300
Wire Wire Line
	7250 3300 7550 3300
Connection ~ 7250 4050
Text Label 6650 3150 0    50   ~ 0
USER_IN_1
Wire Wire Line
	6650 3150 7550 3150
Text Label 6650 3900 0    50   ~ 0
USER_IN_2
Wire Wire Line
	6650 3900 7550 3900
Text Label 6650 4650 0    50   ~ 0
USER_IN_3
Wire Wire Line
	6650 4650 7550 4650
Text Label 6650 5400 0    50   ~ 0
USER_IN_4
Wire Wire Line
	6650 5400 7550 5400
Text Label 5500 2700 2    50   ~ 0
USER_IN_2
Wire Wire Line
	5000 2700 5500 2700
Text Label 5500 2800 2    50   ~ 0
USER_IN_3
Wire Wire Line
	5000 2800 5500 2800
Text Label 5500 2900 2    50   ~ 0
USER_IN_4
Wire Wire Line
	5000 2900 5500 2900
$Comp
L power:+3.3V #PWR07
U 1 1 5EC08726
P 7400 2950
F 0 "#PWR07" H 7400 2800 50  0001 C CNN
F 1 "+3.3V" H 7415 3123 50  0000 C CNN
F 2 "" H 7400 2950 50  0001 C CNN
F 3 "" H 7400 2950 50  0001 C CNN
	1    7400 2950
	1    0    0    -1  
$EndComp
Text Label 5500 3000 2    50   ~ 0
LED_OUT_1
Wire Wire Line
	5000 3000 5500 3000
Text Label 5500 3100 2    50   ~ 0
LED_OUT_2
Wire Wire Line
	5000 3100 5500 3100
Text Label 5500 3200 2    50   ~ 0
LED_OUT_3
Wire Wire Line
	5000 3200 5500 3200
Text Label 5500 3500 2    50   ~ 0
SWDIO
Wire Wire Line
	5000 3500 5500 3500
Wire Wire Line
	5000 3600 5500 3600
Text Label 5500 3600 2    50   ~ 0
SWDCLK
NoConn ~ 1350 2900
Text Label 3500 3300 0    50   ~ 0
FAN_1_TACH
Wire Wire Line
	4000 3300 3500 3300
NoConn ~ 4000 2800
NoConn ~ 4000 2700
Text Label 5500 2200 2    50   ~ 0
FAN_1_PWM
Wire Wire Line
	5000 2200 5500 2200
Wire Wire Line
	5000 2300 5500 2300
Text Label 5500 2300 2    50   ~ 0
FAN_2_PWM
Wire Notes Line
	8600 2650 6450 2650
Wire Wire Line
	9750 4300 9600 4300
Connection ~ 9600 4300
Wire Wire Line
	9600 4300 9600 5200
Wire Wire Line
	9750 3400 9600 3400
Connection ~ 9600 3400
Wire Wire Line
	9600 3400 9600 4300
NoConn ~ 1350 2250
Text Label 1850 2350 2    50   ~ 0
USB_DM
Wire Wire Line
	1350 2350 1850 2350
Wire Wire Line
	1350 2450 1850 2450
Text Label 1850 2450 2    50   ~ 0
USB_DP
$Comp
L power:GND #PWR0101
U 1 1 5EC52C89
P 1550 2550
F 0 "#PWR0101" H 1550 2300 50  0001 C CNN
F 1 "GND" V 1555 2422 50  0000 R CNN
F 2 "" H 1550 2550 50  0001 C CNN
F 3 "" H 1550 2550 50  0001 C CNN
	1    1550 2550
	0    -1   -1   0   
$EndComp
$Comp
L Connector_Generic:Conn_01x04 J8
U 1 1 5EC57981
P 1150 2450
F 0 "J8" H 1068 2025 50  0000 C CNN
F 1 "Conn_01x04" H 1068 2116 50  0000 C CNN
F 2 "Connector_PinHeader_2.54mm:PinHeader_1x04_P2.54mm_Horizontal" H 1150 2450 50  0001 C CNN
F 3 "~" H 1150 2450 50  0001 C CNN
F 4 "538-22-28-8041" H 1150 2450 50  0001 C CNN "Mouser Ref"
	1    1150 2450
	-1   0    0    1   
$EndComp
Wire Wire Line
	1350 2550 1550 2550
NoConn ~ 1350 1550
$Comp
L Connector_Generic:Conn_01x04 J1
U 1 1 5EC72739
P 1150 3100
F 0 "J1" H 1068 2675 50  0000 C CNN
F 1 "Conn_01x04" H 1068 2766 50  0000 C CNN
F 2 "Connector_PinHeader_2.54mm:PinHeader_1x04_P2.54mm_Horizontal" H 1150 3100 50  0001 C CNN
F 3 "~" H 1150 3100 50  0001 C CNN
F 4 "538-22-28-8041" H 1150 3100 50  0001 C CNN "Mouser Ref"
	1    1150 3100
	-1   0    0    1   
$EndComp
Wire Wire Line
	1350 3200 1550 3200
Wire Wire Line
	1350 1650 1400 1650
Wire Wire Line
	1350 1750 1400 1750
Wire Wire Line
	1400 1750 1400 1650
Connection ~ 1400 1650
Wire Wire Line
	1400 1650 1550 1650
$Comp
L Device:R R14
U 1 1 5EC7B382
P 2150 3000
F 0 "R14" V 1943 3000 50  0000 C CNN
F 1 "10k" V 2034 3000 50  0000 C CNN
F 2 "Resistor_SMD:R_0805_2012Metric_Pad1.15x1.40mm_HandSolder" V 2080 3000 50  0001 C CNN
F 3 "~" H 2150 3000 50  0001 C CNN
F 4 "71-CRCW080510K0JNEAC" H 2150 3000 50  0001 C CNN "Mouser Ref"
	1    2150 3000
	0    1    1    0   
$EndComp
$Comp
L Device:R R13
U 1 1 5EC7B619
P 2150 3100
F 0 "R13" V 1943 3100 50  0000 C CNN
F 1 "10k" V 2034 3100 50  0000 C CNN
F 2 "Resistor_SMD:R_0805_2012Metric_Pad1.15x1.40mm_HandSolder" V 2080 3100 50  0001 C CNN
F 3 "~" H 2150 3100 50  0001 C CNN
F 4 "71-CRCW080510K0JNEAC" H 2150 3100 50  0001 C CNN "Mouser Ref"
	1    2150 3100
	0    1    1    0   
$EndComp
Wire Wire Line
	1350 3100 2000 3100
Wire Wire Line
	1350 3000 2000 3000
$Comp
L power:+3V3 #PWR0102
U 1 1 5EC8280E
P 2450 2900
F 0 "#PWR0102" H 2450 2750 50  0001 C CNN
F 1 "+3V3" H 2465 3073 50  0000 C CNN
F 2 "" H 2450 2900 50  0001 C CNN
F 3 "" H 2450 2900 50  0001 C CNN
	1    2450 2900
	1    0    0    -1  
$EndComp
Wire Wire Line
	2450 2900 2450 3000
Wire Wire Line
	2450 3100 2300 3100
Wire Wire Line
	2300 3000 2450 3000
Connection ~ 2450 3000
Wire Wire Line
	2450 3000 2450 3100
$Comp
L Device:Jumper_NO_Small JP1
U 1 1 5EC97CC6
P 4100 6600
F 0 "JP1" H 4100 6785 50  0000 C CNN
F 1 "Jumper_NO_Small" H 4100 6694 50  0000 C CNN
F 2 "Jumper:SolderJumper-2_P1.3mm_Open_RoundedPad1.0x1.5mm" H 4100 6600 50  0001 C CNN
F 3 "~" H 4100 6600 50  0001 C CNN
	1    4100 6600
	-1   0    0    -1  
$EndComp
$Comp
L Device:C C5
U 1 1 5EC9C8FE
P 3450 1700
F 0 "C5" H 3565 1746 50  0000 L CNN
F 1 "100n" H 3565 1655 50  0000 L CNN
F 2 "Capacitor_SMD:C_0805_2012Metric_Pad1.15x1.40mm_HandSolder" H 3488 1550 50  0001 C CNN
F 3 "~" H 3450 1700 50  0001 C CNN
F 4 "80-C0805C104M5R" H 3450 1700 50  0001 C CNN "Mouser Ref"
	1    3450 1700
	1    0    0    -1  
$EndComp
Wire Wire Line
	3450 1500 3450 1550
Wire Wire Line
	3750 1550 3750 1500
Wire Wire Line
	3450 1850 3450 1900
Wire Wire Line
	3450 1900 3750 1900
Wire Wire Line
	3750 1850 3750 1900
Connection ~ 3750 1900
$Comp
L power:GND #PWR0103
U 1 1 5ECB8040
P 3750 1950
F 0 "#PWR0103" H 3750 1700 50  0001 C CNN
F 1 "GND" H 3755 1777 50  0000 C CNN
F 2 "" H 3750 1950 50  0001 C CNN
F 3 "" H 3750 1950 50  0001 C CNN
	1    3750 1950
	1    0    0    -1  
$EndComp
$Comp
L Device:C C6
U 1 1 5ECBCB69
P 3750 1700
F 0 "C6" H 3865 1746 50  0000 L CNN
F 1 "100n" H 3865 1655 50  0000 L CNN
F 2 "Capacitor_SMD:C_0805_2012Metric_Pad1.15x1.40mm_HandSolder" H 3788 1550 50  0001 C CNN
F 3 "~" H 3750 1700 50  0001 C CNN
F 4 "80-C0805C104M5R" H 3750 1700 50  0001 C CNN "Mouser Ref"
	1    3750 1700
	1    0    0    -1  
$EndComp
$Comp
L Device:C C7
U 1 1 5ECBCE51
P 5050 1700
F 0 "C7" H 5165 1746 50  0000 L CNN
F 1 "100n" H 5165 1655 50  0000 L CNN
F 2 "Capacitor_SMD:C_0805_2012Metric_Pad1.15x1.40mm_HandSolder" H 5088 1550 50  0001 C CNN
F 3 "~" H 5050 1700 50  0001 C CNN
F 4 "80-C0805C104M5R" H 5050 1700 50  0001 C CNN "Mouser Ref"
	1    5050 1700
	1    0    0    -1  
$EndComp
Text Label 3650 6800 0    50   ~ 0
BOOT0
$Comp
L power:GND #PWR0104
U 1 1 5ECC50A1
P 4900 6600
F 0 "#PWR0104" H 4900 6350 50  0001 C CNN
F 1 "GND" V 4905 6472 50  0000 R CNN
F 2 "" H 4900 6600 50  0001 C CNN
F 3 "" H 4900 6600 50  0001 C CNN
	1    4900 6600
	0    -1   -1   0   
$EndComp
Wire Notes Line
	8600 6100 8600 2650
$Comp
L Connector_Generic:Conn_01x05 J7
U 1 1 5ECC3C5E
P 8300 1850
F 0 "J7" H 8218 1425 50  0000 C CNN
F 1 "Conn_01x05" H 8218 1516 50  0000 C CNN
F 2 "Connector_Molex:Molex_KK-254_AE-6410-05A_1x05_P2.54mm_Vertical" H 8300 1850 50  0001 C CNN
F 3 "~" H 8300 1850 50  0001 C CNN
F 4 "538-22-04-5057" H 8300 1850 50  0001 C CNN "Mouser Ref"
	1    8300 1850
	1    0    0    1   
$EndComp
$Comp
L power:+12V #PWR0105
U 1 1 5ECC3C68
P 7600 1650
F 0 "#PWR0105" H 7600 1500 50  0001 C CNN
F 1 "+12V" V 7600 1900 50  0000 C CNN
F 2 "" H 7600 1650 50  0001 C CNN
F 3 "" H 7600 1650 50  0001 C CNN
	1    7600 1650
	0    -1   1    0   
$EndComp
$Comp
L Device:Fuse F?
U 1 1 5ECC3C72
P 7850 1650
AR Path="/5EB93B3B/5ECC3C72" Ref="F?"  Part="1" 
AR Path="/5EBB4948/5ECC3C72" Ref="F?"  Part="1" 
AR Path="/5EBB5555/5ECC3C72" Ref="F?"  Part="1" 
AR Path="/5EBB555B/5ECC3C72" Ref="F?"  Part="1" 
AR Path="/5ECC3C72" Ref="F5"  Part="1" 
F 0 "F5" V 7653 1650 50  0000 C CNN
F 1 "F0.5A" V 7744 1650 50  0000 C CNN
F 2 "Resistor_SMD:R_0805_2012Metric_Pad1.15x1.40mm_HandSolder" V 7780 1650 50  0001 C CNN
F 3 "~" H 7850 1650 50  0001 C CNN
F 4 "594-MFU0805FF00500P1 " H 7850 1650 50  0001 C CNN "Mouser Ref"
	1    7850 1650
	0    -1   1    0   
$EndComp
Wire Wire Line
	7600 1650 7700 1650
Wire Wire Line
	8000 1650 8100 1650
Text Label 6800 1850 0    50   ~ 0
LED_OUT_1
Text Label 6800 1950 0    50   ~ 0
LED_OUT_2
Text Label 6800 2050 0    50   ~ 0
LED_OUT_3
Wire Notes Line
	6450 2650 6450 6100
Text Notes 6500 6050 0    50   ~ 0
Inputs
Wire Notes Line
	6450 6100 8600 6100
Wire Wire Line
	9750 3850 9450 3850
Connection ~ 9450 3850
Wire Wire Line
	9450 3850 9450 2950
Wire Wire Line
	9750 4750 9450 4750
Connection ~ 9450 4750
Wire Wire Line
	9450 4750 9450 3850
Wire Wire Line
	3750 1950 3750 1900
Wire Wire Line
	3750 1300 3750 1500
Connection ~ 3750 1500
Wire Wire Line
	4400 1900 4600 1900
Wire Wire Line
	4500 2000 4500 1500
Wire Wire Line
	4500 1500 5050 1500
Wire Wire Line
	5050 1500 5050 1550
$Comp
L power:GND #PWR0107
U 1 1 5EC36BDF
P 5050 1900
F 0 "#PWR0107" H 5050 1650 50  0001 C CNN
F 1 "GND" H 5055 1727 50  0000 C CNN
F 2 "" H 5050 1900 50  0001 C CNN
F 3 "" H 5050 1900 50  0001 C CNN
	1    5050 1900
	1    0    0    -1  
$EndComp
Wire Wire Line
	5050 1850 5050 1900
$Comp
L Device:Ferrite_Bead FB1
U 1 1 5EC3D21B
P 4300 1500
F 0 "FB1" V 4026 1500 50  0000 C CNN
F 1 "Ferrite_Bead" V 4117 1500 50  0000 C CNN
F 2 "Resistor_SMD:R_0805_2012Metric_Pad1.15x1.40mm_HandSolder" V 4230 1500 50  0001 C CNN
F 3 "~" H 4300 1500 50  0001 C CNN
F 4 "652-MH2029-601Y" H 4300 1500 50  0001 C CNN "Mouser Ref"
	1    4300 1500
	0    1    1    0   
$EndComp
Wire Wire Line
	4100 1500 4100 1900
Wire Wire Line
	4100 1900 4400 1900
Wire Wire Line
	3750 1500 4100 1500
Connection ~ 4400 1900
Wire Wire Line
	4100 1500 4150 1500
Wire Wire Line
	3450 1500 3750 1500
Connection ~ 4100 1500
Wire Wire Line
	4450 1500 4500 1500
Connection ~ 4500 1500
Wire Notes Line
	6450 950  6450 2550
Wire Notes Line
	8600 2550 8600 950 
Text Notes 6500 2500 0    50   ~ 0
LED OUT
$Comp
L Connector_Generic:Conn_01x04 J9
U 1 1 5ED2CF22
P 1150 3500
F 0 "J9" H 1068 3075 50  0000 C CNN
F 1 "TE 171826-4" H 1068 3166 50  0000 C CNN
F 2 "TE-CONNECTIVITY:171826-4" H 1150 3500 50  0001 C CNN
F 3 "~" H 1150 3500 50  0001 C CNN
F 4 "571-1718264" H 1150 3500 50  0001 C CNN "Mouser Ref"
	1    1150 3500
	-1   0    0    -1  
$EndComp
NoConn ~ 1350 3400
$Comp
L power:GND #PWR0108
U 1 1 5ED39981
P 1500 3500
F 0 "#PWR0108" H 1500 3250 50  0001 C CNN
F 1 "GND" V 1505 3372 50  0000 R CNN
F 2 "" H 1500 3500 50  0001 C CNN
F 3 "" H 1500 3500 50  0001 C CNN
	1    1500 3500
	0    -1   -1   0   
$EndComp
Wire Wire Line
	1350 3500 1450 3500
Wire Wire Line
	1350 3600 1450 3600
Wire Wire Line
	1450 3600 1450 3500
Connection ~ 1450 3500
Wire Wire Line
	1450 3500 1500 3500
$Comp
L power:+12V #PWR0109
U 1 1 5ED4BB64
P 1450 3700
F 0 "#PWR0109" H 1450 3550 50  0001 C CNN
F 1 "+12V" V 1465 3828 50  0000 L CNN
F 2 "" H 1450 3700 50  0001 C CNN
F 3 "" H 1450 3700 50  0001 C CNN
	1    1450 3700
	0    1    1    0   
$EndComp
$Comp
L power:+12V #PWR0110
U 1 1 5EC08628
P 1050 4950
F 0 "#PWR0110" H 1050 4800 50  0001 C CNN
F 1 "+12V" V 1065 5078 50  0000 L CNN
F 2 "" H 1050 4950 50  0001 C CNN
F 3 "" H 1050 4950 50  0001 C CNN
	1    1050 4950
	0    -1   -1   0   
$EndComp
$Comp
L power:+3V3 #PWR0111
U 1 1 5EC102EC
P 2450 4950
F 0 "#PWR0111" H 2450 4800 50  0001 C CNN
F 1 "+3V3" V 2450 5150 50  0000 C CNN
F 2 "" H 2450 4950 50  0001 C CNN
F 3 "" H 2450 4950 50  0001 C CNN
	1    2450 4950
	0    1    -1   0   
$EndComp
$Comp
L Regulator_Linear:LD1117S33TR_SOT223 U2
U 1 1 5EC050BC
P 1750 4950
F 0 "U2" H 1750 5192 50  0000 C CNN
F 1 "LD1117S33TR_SOT223" H 1750 5101 50  0000 C CNN
F 2 "Package_TO_SOT_SMD:SOT-223-3_TabPin2" H 1750 5150 50  0001 C CNN
F 3 "http://www.st.com/st-web-ui/static/active/en/resource/technical/document/datasheet/CD00000544.pdf" H 1850 4700 50  0001 C CNN
F 4 "511-LD1117S33 " H 1750 4950 50  0001 C CNN "Mouser Ref"
	1    1750 4950
	1    0    0    -1  
$EndComp
$Comp
L Device:CP C9
U 1 1 5EC3B9F0
P 2250 5150
F 0 "C9" H 2368 5196 50  0000 L CNN
F 1 "33µF 25V" H 2368 5105 50  0000 L CNN
F 2 "Capacitor_SMD:CP_Elec_6.3x5.9" H 2288 5000 50  0001 C CNN
F 3 "EEE-FK1E330UR" H 2250 5150 50  0001 C CNN
F 4 "667-EEE-FK1E330UR" H 2250 5150 50  0001 C CNN "Mouser Ref"
	1    2250 5150
	1    0    0    -1  
$EndComp
Wire Wire Line
	2450 4950 2250 4950
Wire Wire Line
	2250 5000 2250 4950
Connection ~ 2250 4950
Wire Wire Line
	2250 4950 2050 4950
Wire Wire Line
	1250 5000 1250 4950
Connection ~ 1250 4950
Wire Wire Line
	1250 4950 1450 4950
Wire Wire Line
	1050 4950 1250 4950
Wire Wire Line
	1250 5300 1250 5350
Wire Wire Line
	1250 5350 1750 5350
Wire Wire Line
	2250 5350 2250 5300
Wire Wire Line
	1750 5250 1750 5350
Connection ~ 1750 5350
Wire Wire Line
	1750 5350 2250 5350
$Comp
L power:GND #PWR0112
U 1 1 5EC7A41E
P 1750 5450
F 0 "#PWR0112" H 1750 5200 50  0001 C CNN
F 1 "GND" H 1755 5277 50  0000 C CNN
F 2 "" H 1750 5450 50  0001 C CNN
F 3 "" H 1750 5450 50  0001 C CNN
	1    1750 5450
	1    0    0    -1  
$EndComp
Wire Wire Line
	1750 5450 1750 5350
$Comp
L Device:CP C8
U 1 1 5EC82FE8
P 1250 5150
F 0 "C8" H 1368 5196 50  0000 L CNN
F 1 "33µF 25V" H 1368 5105 50  0000 L CNN
F 2 "Capacitor_SMD:CP_Elec_6.3x5.9" H 1288 5000 50  0001 C CNN
F 3 "EEE-FK1E330UR" H 1250 5150 50  0001 C CNN
F 4 "667-EEE-FK1E330UR" H 1250 5150 50  0001 C CNN "Mouser Ref"
	1    1250 5150
	1    0    0    -1  
$EndComp
Wire Wire Line
	5000 3700 5500 3700
Text Label 5500 3700 2    50   ~ 0
LED_STATUS
Text Label 3300 5150 0    50   ~ 0
LED_STATUS
Wire Wire Line
	3300 5150 3800 5150
$Comp
L power:GND #PWR0113
U 1 1 5ECA0C5A
P 4900 5150
F 0 "#PWR0113" H 4900 4900 50  0001 C CNN
F 1 "GND" V 4905 5022 50  0000 R CNN
F 2 "" H 4900 5150 50  0001 C CNN
F 3 "" H 4900 5150 50  0001 C CNN
	1    4900 5150
	0    -1   -1   0   
$EndComp
Wire Wire Line
	4900 5150 4600 5150
$Comp
L Device:R R15
U 1 1 5ECB4681
P 3950 5150
F 0 "R15" V 3743 5150 50  0000 C CNN
F 1 "330" V 3834 5150 50  0000 C CNN
F 2 "Resistor_SMD:R_0805_2012Metric_Pad1.15x1.40mm_HandSolder" V 3880 5150 50  0001 C CNN
F 3 "~" H 3950 5150 50  0001 C CNN
F 4 "71-CRCW08051K00FKEAC" H 3950 5150 50  0001 C CNN "Mouser Ref"
	1    3950 5150
	0    1    1    0   
$EndComp
$Comp
L Device:LED D1
U 1 1 5ECB57A7
P 4450 5150
F 0 "D1" H 4443 4895 50  0000 C CNN
F 1 "LED" H 4443 4986 50  0000 C CNN
F 2 "LED_SMD:LED_0805_2012Metric_Pad1.15x1.40mm_HandSolder" H 4450 5150 50  0001 C CNN
F 3 "~" H 4450 5150 50  0001 C CNN
F 4 "859-LTST-C171AKT" H 4450 5150 50  0001 C CNN "Mouser Ref"
	1    4450 5150
	-1   0    0    1   
$EndComp
Wire Wire Line
	4300 5150 4100 5150
$Comp
L power:GND #PWR0114
U 1 1 5EC113EF
P 1400 6950
F 0 "#PWR0114" H 1400 6700 50  0001 C CNN
F 1 "GND" H 1405 6777 50  0000 C CNN
F 2 "" H 1400 6950 50  0001 C CNN
F 3 "" H 1400 6950 50  0001 C CNN
	1    1400 6950
	1    0    0    -1  
$EndComp
Wire Wire Line
	1400 6950 1400 6800
$Comp
L Connector_Generic:Conn_01x05 J10
U 1 1 5EC2271A
P 950 6200
F 0 "J10" H 868 6617 50  0000 C CNN
F 1 "Conn_01x05" H 868 6526 50  0000 C CNN
F 2 "Connector_PinHeader_2.54mm:PinHeader_1x05_P2.54mm_Vertical" H 950 6200 50  0001 C CNN
F 3 "~" H 950 6200 50  0001 C CNN
F 4 " 710-61300511121 " H 950 6200 50  0001 C CNN "Mouser Ref"
	1    950  6200
	-1   0    0    -1  
$EndComp
$Comp
L power:+3V3 #PWR0115
U 1 1 5EC2B6B6
P 1850 6000
F 0 "#PWR0115" H 1850 5850 50  0001 C CNN
F 1 "+3V3" V 1865 6173 50  0000 C CNN
F 2 "" H 1850 6000 50  0001 C CNN
F 3 "" H 1850 6000 50  0001 C CNN
	1    1850 6000
	0    1    1    0   
$EndComp
Wire Wire Line
	1500 6000 1150 6000
$Comp
L power:GND #PWR0116
U 1 1 5EC4FAB9
P 1850 6200
F 0 "#PWR0116" H 1850 5950 50  0001 C CNN
F 1 "GND" V 1855 6027 50  0000 C CNN
F 2 "" H 1850 6200 50  0001 C CNN
F 3 "" H 1850 6200 50  0001 C CNN
	1    1850 6200
	0    -1   -1   0   
$EndComp
Wire Wire Line
	1400 6400 1400 6500
Text Label 1500 6400 2    50   ~ 0
NRST
Wire Wire Line
	1500 6400 1400 6400
Connection ~ 1400 6400
Text Label 1500 6100 2    50   ~ 0
SWDCLK
Text Label 1500 6300 2    50   ~ 0
SWDIO
$Comp
L Device:R R16
U 1 1 5ECAAC82
P 1650 6000
F 0 "R16" V 1443 6000 50  0000 C CNN
F 1 "NP" V 1534 6000 50  0000 C CNN
F 2 "Resistor_SMD:R_0805_2012Metric_Pad1.15x1.40mm_HandSolder" V 1580 6000 50  0001 C CNN
F 3 "~" H 1650 6000 50  0001 C CNN
	1    1650 6000
	0    1    1    0   
$EndComp
Wire Wire Line
	1150 6100 1500 6100
Wire Wire Line
	1150 6300 1500 6300
Wire Wire Line
	1150 6400 1400 6400
Wire Wire Line
	1850 6000 1800 6000
Wire Wire Line
	1150 6200 1850 6200
$Comp
L Connector_Generic:Conn_01x02 J11
U 1 1 5ECDAF70
P 1150 4250
F 0 "J11" H 1068 4467 50  0000 C CNN
F 1 "Conn_01x02" H 1068 4376 50  0000 C CNN
F 2 "Connector_Molex:Molex_Micro-Fit_3.0_43045-0200_2x01_P3.00mm_Horizontal" H 1150 4250 50  0001 C CNN
F 3 "~" H 1150 4250 50  0001 C CNN
F 4 "538-43045-0200 " H 1150 4250 50  0001 C CNN "Mouser Ref"
	1    1150 4250
	-1   0    0    -1  
$EndComp
$Comp
L power:GND #PWR0117
U 1 1 5ECE9262
P 1400 4350
F 0 "#PWR0117" H 1400 4100 50  0001 C CNN
F 1 "GND" V 1405 4222 50  0000 R CNN
F 2 "" H 1400 4350 50  0001 C CNN
F 3 "" H 1400 4350 50  0001 C CNN
	1    1400 4350
	0    -1   -1   0   
$EndComp
Wire Wire Line
	1400 4350 1350 4350
$Comp
L power:+12V #PWR0118
U 1 1 5ECF33A1
P 1450 4250
F 0 "#PWR0118" H 1450 4100 50  0001 C CNN
F 1 "+12V" V 1465 4378 50  0000 L CNN
F 2 "" H 1450 4250 50  0001 C CNN
F 3 "" H 1450 4250 50  0001 C CNN
	1    1450 4250
	0    1    1    0   
$EndComp
Wire Wire Line
	1450 4250 1350 4250
Wire Wire Line
	1450 3700 1350 3700
$Comp
L power:GND #PWR0106
U 1 1 5ED66735
P 7600 1750
F 0 "#PWR0106" H 7600 1500 50  0001 C CNN
F 1 "GND" H 7605 1577 50  0000 C CNN
F 2 "" H 7600 1750 50  0001 C CNN
F 3 "" H 7600 1750 50  0001 C CNN
	1    7600 1750
	0    1    1    0   
$EndComp
Wire Wire Line
	7600 1750 8100 1750
$Comp
L Device:R R17
U 1 1 5EDD05D8
P 7800 1850
F 0 "R17" V 7593 1850 50  0000 C CNN
F 1 "330" V 7684 1850 50  0000 C CNN
F 2 "Resistor_SMD:R_0805_2012Metric_Pad1.15x1.40mm_HandSolder" V 7730 1850 50  0001 C CNN
F 3 "~" H 7800 1850 50  0001 C CNN
F 4 "71-CRCW0805330RFKEAC" H 7800 1850 50  0001 C CNN "Mouser Ref"
	1    7800 1850
	0    1    1    0   
$EndComp
$Comp
L Device:R R18
U 1 1 5EDD0F38
P 7800 1950
F 0 "R18" V 7593 1950 50  0000 C CNN
F 1 "330" V 7684 1950 50  0000 C CNN
F 2 "Resistor_SMD:R_0805_2012Metric_Pad1.15x1.40mm_HandSolder" V 7730 1950 50  0001 C CNN
F 3 "~" H 7800 1950 50  0001 C CNN
F 4 "71-CRCW0805330RFKEAC" H 7800 1950 50  0001 C CNN "Mouser Ref"
	1    7800 1950
	0    1    1    0   
$EndComp
$Comp
L Device:R R19
U 1 1 5EDD10A6
P 7800 2050
F 0 "R19" V 7593 2050 50  0000 C CNN
F 1 "330" V 7684 2050 50  0000 C CNN
F 2 "Resistor_SMD:R_0805_2012Metric_Pad1.15x1.40mm_HandSolder" V 7730 2050 50  0001 C CNN
F 3 "~" H 7800 2050 50  0001 C CNN
F 4 "71-CRCW0805330RFKEAC" H 7800 2050 50  0001 C CNN "Mouser Ref"
	1    7800 2050
	0    1    1    0   
$EndComp
Wire Wire Line
	8100 2050 7950 2050
Wire Wire Line
	7950 1950 8100 1950
Wire Wire Line
	8100 1850 7950 1850
Wire Wire Line
	6800 1850 7650 1850
Wire Wire Line
	6800 1950 7650 1950
Wire Wire Line
	6800 2050 7650 2050
$Comp
L Device:C C10
U 1 1 5EC10A8E
P 1400 6650
F 0 "C10" H 1515 6696 50  0000 L CNN
F 1 "100n" H 1515 6605 50  0000 L CNN
F 2 "Capacitor_SMD:C_0805_2012Metric_Pad1.15x1.40mm_HandSolder" H 1438 6500 50  0001 C CNN
F 3 "~" H 1400 6650 50  0001 C CNN
F 4 "80-C0805C104M5R" H 1400 6650 50  0001 C CNN "Mouser Ref"
	1    1400 6650
	1    0    0    -1  
$EndComp
Wire Notes Line
	6450 950  8600 950 
Wire Notes Line
	6450 2550 8600 2550
$Comp
L Device:R R20
U 1 1 5EF317B5
P 4650 6600
F 0 "R20" V 4443 6600 50  0000 C CNN
F 1 "100k" V 4534 6600 50  0000 C CNN
F 2 "Resistor_SMD:R_0805_2012Metric_Pad1.15x1.40mm_HandSolder" V 4580 6600 50  0001 C CNN
F 3 "~" H 4650 6600 50  0001 C CNN
F 4 "71-CRCW08051K00FKEAC" H 4650 6600 50  0001 C CNN "Mouser Ref"
	1    4650 6600
	0    1    1    0   
$EndComp
$Comp
L power:+3V3 #PWR0119
U 1 1 5EF4FE50
P 3900 6600
F 0 "#PWR0119" H 3900 6450 50  0001 C CNN
F 1 "+3V3" V 3900 6800 50  0000 C CNN
F 2 "" H 3900 6600 50  0001 C CNN
F 3 "" H 3900 6600 50  0001 C CNN
	1    3900 6600
	0    -1   -1   0   
$EndComp
Wire Wire Line
	4900 6600 4850 6600
Wire Wire Line
	3900 6600 4000 6600
$Comp
L Device:C C11
U 1 1 5F0D8DA9
P 4650 6800
F 0 "C11" V 4800 6850 50  0000 L CNN
F 1 "100n" V 4800 6650 50  0000 L CNN
F 2 "Capacitor_SMD:C_0805_2012Metric_Pad1.15x1.40mm_HandSolder" H 4688 6650 50  0001 C CNN
F 3 "~" H 4650 6800 50  0001 C CNN
F 4 "80-C0805C104M5R" H 4650 6800 50  0001 C CNN "Mouser Ref"
	1    4650 6800
	0    1    1    0   
$EndComp
Wire Wire Line
	4800 6800 4850 6800
Wire Wire Line
	4850 6800 4850 6600
Connection ~ 4850 6600
Wire Wire Line
	4850 6600 4800 6600
Wire Wire Line
	4500 6800 4400 6800
Wire Wire Line
	4400 6800 4400 6600
Wire Wire Line
	4400 6600 4500 6600
$Comp
L Device:R R21
U 1 1 5F0EF0EB
P 4100 6800
F 0 "R21" V 3893 6800 50  0000 C CNN
F 1 "330" V 3984 6800 50  0000 C CNN
F 2 "Resistor_SMD:R_0805_2012Metric_Pad1.15x1.40mm_HandSolder" V 4030 6800 50  0001 C CNN
F 3 "~" H 4100 6800 50  0001 C CNN
F 4 "71-CRCW08051K00FKEAC" H 4100 6800 50  0001 C CNN "Mouser Ref"
	1    4100 6800
	0    -1   -1   0   
$EndComp
Wire Wire Line
	4250 6800 4400 6800
Connection ~ 4400 6800
Wire Wire Line
	3950 6800 3650 6800
Wire Wire Line
	4200 6600 4400 6600
Connection ~ 4400 6600
$Comp
L Graphic:Logo_Open_Hardware_Small LOGO2
U 1 1 5F0E9B9F
P 6600 7400
F 0 "LOGO2" H 6600 7675 50  0001 C CNN
F 1 "Logo_Open_Hardware_Small" H 6600 7175 50  0001 C CNN
F 2 "Symbol:OSHW-Symbol_13.4x12mm_SilkScreen" H 6600 7400 50  0001 C CNN
F 3 "~" H 6600 7400 50  0001 C CNN
	1    6600 7400
	1    0    0    -1  
$EndComp
$Comp
L OFC:OFC-LOGO LOGO1
U 1 1 5F105341
P 5450 7400
F 0 "LOGO1" H 5475 7446 50  0000 L CNN
F 1 "OFC-LOGO" H 5475 7355 50  0000 L CNN
F 2 "OFC:logo" H 5450 7400 50  0001 C CNN
F 3 "" H 5450 7400 50  0001 C CNN
	1    5450 7400
	1    0    0    -1  
$EndComp
$EndSCHEMATC
